[
  [
    "00000-11111.png",
    "https://arweave.net/ZQKPOrYBQrO_O2v_1RBafoFszOY2Cqieb55t1hhUjcg"
  ],
  [
    "12345-67890.json",
    "https://arweave.net/f5QEfLprmdIhObl8Lf6sId8oyekyqXz5uyMGGGp7qqk"
  ],
  [
    "12345-67890.png",
    "https://arweave.net/iHUmc3ZI1ixvZ5DG6-KvDLDNvGmFn-0oKYC8XwMdd4A"
  ],
  [
    "competence.json",
    "https://arweave.net/zDXXcB5WeXqSisHHRS9uwC3QbXX3BPvFIqeBpfXBaT4"
  ],
  [
    "competence.png",
    "https://arweave.net/rQiKqgkdhYCI9WxQKW0f_ETtGVPRPlD-6Ew1EJaPpRU"
  ]
]
