{
  "d": "CXWKiCZb-V0NtwO48N2etUxMsCCW_5CccLLlKNK1tv86r7UL41zeUGlI3ZVJk3RAyEtbUJSka9YdFo--Wfq4L2P_LlyqHp1z8X3BD6682FELc4VjO4IksR2O1pQETwNULXt9LHbw521mZ9FuxeEKfTY3H7ut_U4-AYz0OdwWuHKxkhs3J1QVQ1TjY_SPZWeWk-u3LGIRTgfSB8mqSKCjYHeH0CBOHwT0LwoN2UA2TaVCQjWEuHoO1c5YUz7Vgge31sDGMbSPnRLR-2ggIuawHWSt4fq0q7ahgG2_eOExAWb1ib04prDD0ONuE4m9_qeitN1PIAczBCdFRvtOX9PkqbJpP8BR2T0ZPAJAgdGlhoML8xwufUB6x5wD6j16RkwJBeA5zC6RZuUL3csLt39kPJxkrgihXrGvZzmT-PgTMoeLRNLmL3kdSVAJMn0KzULwSEOoImXyX4XQ06IQ_mMIDRWBixy3HRFvtvV-_NKxrqHkCuVOcvmrjyFMDUrVRyO7l5o3UDoNSrbSYSgumUZUsbZqVj6Qy0Q6besmBeUUjumdqG1BIhWIp0KJ8CM5Oq1OGa7O39wzMw9SDU1p6majao_rxClR1GidRI4DDet2G9yNrZQEnuDRGas6ymHvXFtOGL5TYN4iKkFI_bEoq1HLdAjAakMD8IoBvKCWbpNN-gE",
  "dp": "0pyyYfnny0P-Lc-kyBqON5RA1CtL-Hqn0rMU3sOaNMQ6eICiVtopZV7RKGbz4cPUTXjBmqTXva9sk0t70rSc3wl9A-NnL1s2poS56nJ2LmLuCJb1ezYrei9YxoT3ajV6lhsvtE5dGq-cFiG9CopubwXcAQOOkDN6JY1tv-h3BoxDRJTYGfv5iTYKubPoYhXJXKt_-FJoAl4jfLqs6GhCE1SqX6N8Ggm-rAdsX-zqRTbDdlO8fOyaQ9YK4e_Dw6rVgyLjqFGvWesnOaDaA5M-mmB7rVPFuXCAY-s8VcJyxLZm9AJnYUsnlBzKPcEP34D9v7lOlwVwZ-Sk4W4N14wmgQ",
  "dq": "d78gbWhpRxoKIAtONobua5brgmsKJJNPUiimrBNPyDDDtR21tv-5KjHCc02j5PIYbinj_21TESqBhNrenOKvasCGF04Rs6JvEjBgXVR7rhYwFfguNMzukbJ0R7GpvMv6nd-wrW93efooZvHjVsQAD3iHoax48qbyNV2zTFzyBCCTd6XFm32i5p5QQ4v-hE9i2SAeh7XEb1scSCMIeZw42LRUqjG3Ruy0VfY35C_UTVbk5E1CCdJcA6_EihSf6qpa5hwtTlyZ3Ur6lClrGErBknm6Td20IF30PMaKw66R95Kl8yPD1gVg5gX1XqvCd7wbWjI7OrV537GrhiByPKNUmQ",
  "e": "AQAB",
  "ext": true,
  "kty": "RSA",
  "n": "jpOqI2EJo72IIQ5dD7HJD_TP-yEnz3Y6A0INaFLQSrZiYXxTZRQd_DVM8f8CKcsGJ8857pHXDKGdXF5-Vcn1wwNy1SDDqrhR5UBx1hE5LGMi44137XnFUHEK12y9h2WxYyFdBiFJnmYVgNCUVMXZvpHNAkjfywYVLwp3kcyxXv54ZJv7cId0En8ZuGbhQ4gfw9glN2sFbCplPxlSVAOIbPog84Zfk9ifcLSwW0OQtn6y9Or5_oPYbRxjAhHxcwBYdkMtIOXvnElsd0rdjuK9HqnCsDJR3Va9S44BzaPKdM-obmGkYZWyYPxoCPBPoD5BRBA_5u_t09vQy4P3PDBO_tztd6brXReFkLfnYsxF5MSszm6BrUr3vr4FXSB7F6RikvabxLYtPBMSAqDhTmnJGx4zMHA_0yxm8IE1TU8p4svOrHWSdLbHVzUGLGLCjpI0Z-E6UWXCNcerpShL6YqAkRXXmpkhNtK8yz7IjWy7JR9_22of82S3hObTSsuqJPj7YAkbNTQusDuLZYbQbCUEg4SgainnuiNkiN2CaHIVjb2Ld_tKg_435FhVJ3i9Ek172bTZSjGgtYeXQFyZ-Ll3qggxHK6d_VhCHCKrYMJnEHnzaR6x65Rd8Xb2a0jXd7bwgKzaALXbJ9OxzoyjmV69f5uJ9c6NKQTcLa6NI2M0ytU",
  "p": "3LR05sk0f5Cy3ymEeiTNAVYcKggGCnkysq4EGdbfqe8ymOA7CnLHhpuK3FKSpOm1LadZl-xtUenOh8T8eOdjjLDiI-zbBgTWoZZ1Q4akXGJKvj99FhHwpKGFQV7HIaKG3fNJAehlKO_NMzlNzuCVTLo-rFiL2GJqGskML_eUY6FFLnwhZa4Mbq7rBkP1ahv65snOZ2RjLXYxERpRpqeLRYAdCBA5n-lPKCgNIP93-j2h-KlQUJhNnL62qbS85iP2CV4HN6zrXiRBcrrFczWRE3bhUsxzyDl6gibOaJ8vfwOiMIljQUqmhAVt5KMSD_OLfSv0vIIqyhpIXPK31QLj4Q",
  "q": "pWCvSZPRhEN2QJJLeI5cQ0-9VCkGOTEPDyMqyKwA9-Ztt3s4KaIcjyBW3EFWFLnzrg5nm10X9IHKEjbvzcWF6joHqNgYb7bRv8zUMYckg68R1fHCSjn1DVoc59TZoqjOxynCCCLPvy-l5JXxF7Njko44keUP7mQhV0ZiABv1FkA85YTKt83XmxqnkcFeLqniok9i8tltvrjBcybKisFhfLiSH6W45r3uutJGFE3b4ib2Na2U5kT5yRo1auAQOTIwnplg_-RAOow9aJpp8IQzpQqnQUljscQ64bUkBCZ737Mqh9kF7tn2KCbnPeIemJNxZe-bmVT4OicCnufz0FdFdQ",
  "qi": "2Ml8Vjo6hkLCc39JsEQcKdqqWLMLQksWVNJ_QD539ZfMC_2RTlKfH2Dqt_1GSHi7y0yUXkGKhwGdlCoTka4AEt8PsOtsii4ZCJA02hIEg4X0wG_pdEZyrJFUaHj_0fhES3cBBxdmh51MbkvO-LLhIH1FJi6RaRRGHAIe0udrSU0I8GDB8Ym8z9rrFrv1YkqkkCphcVKIi1QxBBvQS0XQqP_rJasmQJRIGDzCcoeUf2cWp16fKv71TgZhkn59Qeg1QItPP5pxPF2RASBBNAKQhR77CKuuSxhA2AlV7TmCRnO2r9rvP-JAaZSUvggXHFV34JaRHJU9O9O3laymuXKkCQ"
}